<?xml version="1.0" encoding="UTF-8" standalone="no"?>
<svg
   xmlns:dc="http://purl.org/dc/elements/1.1/"
   xmlns:cc="http://creativecommons.org/ns#"
   xmlns:rdf="http://www.w3.org/1999/02/22-rdf-syntax-ns#"
   xmlns:svg="http://www.w3.org/2000/svg"
   xmlns="http://www.w3.org/2000/svg"
   xmlns:sodipodi="http://sodipodi.sourceforge.net/DTD/sodipodi-0.dtd"
   xmlns:inkscape="http://www.inkscape.org/namespaces/inkscape"
   width="16.0px"
   height="16.0px"
   viewBox="0 0 16.0 16.0"
   version="1.1"
   id="SVGRoot"
   sodipodi:docname="Genius.svg"
   inkscape:version="1.0.1 (3bc2e813f5, 2020-09-07)">
  <defs
     id="defs841" />
  <sodipodi:namedview
     id="base"
     pagecolor="#ffffff"
     bordercolor="#666666"
     borderopacity="1.0"
     inkscape:pageopacity="0.0"
     inkscape:pageshadow="2"
     inkscape:zoom="44.5625"
     inkscape:cx="8"
     inkscape:cy="7.9505887"
     inkscape:document-units="px"
     inkscape:current-layer="layer1"
     inkscape:document-rotation="0"
     showgrid="true"
     inkscape:window-width="902"
     inkscape:window-height="1030"
     inkscape:window-x="1002"
     inkscape:window-y="12"
     inkscape:window-maximized="1"
     showguides="true">
    <inkscape:grid
       type="xygrid"
       id="grid850" />
  </sodipodi:namedview>
  <metadata
     id="metadata844">
    <rdf:RDF>
      <cc:Work
         rdf:about="">
        <dc:format>image/svg+xml</dc:format>
        <dc:type
           rdf:resource="http://purl.org/dc/dcmitype/StillImage" />
        <dc:title></dc:title>
      </cc:Work>
    </rdf:RDF>
  </metadata>
  <g
     inkscape:label="Layer 1"
     inkscape:groupmode="layer"
     id="layer1"
     style="display:inline">
    <rect
       style="display:inline;fill:#c8b4a2;fill-opacity:1;stroke:#000000;stroke-width:0;stroke-miterlimit:4;stroke-dasharray:none;stroke-opacity:1"
       id="rect875-7-5-6"
       width="16"
       height="16"
       x="0"
       y="-4.7683716e-07"
       rx="2"
       ry="2" />
    <path
       id="rect4704-3"
       style="display:inline;opacity:1;fill:#534354;fill-opacity:1;stroke:#000000;stroke-width:0;stop-color:#000000"
       d="M 3,2 C 2.446,2 2,2.446 2,3 V 7 C 2,7.554 2.446,8 3,8 3.554,8 4,7.554 4,7 V 5 C 4,4.446 4.446,4 5,4 H 7 C 7.554,4 8,3.554 8,3 8,2.446 7.554,2 7,2 H 4.5 4 Z m 8,0 c -0.554,0 -1,0.446 -1,1 0,0.554 0.446,1 1,1 h 0.999999 v 1 c 0,0.554 0.446,1 1,1 0.554001,0 1,-0.446 1,-1 V 3 c 0,-0.554 -0.445999,-1 -1,-1 z M 6,5 C 5.446,5 5,5.446 5,6 v 4 c 0,0.554 0.446,1 1,1 h 4 c 0.554,0 1,-0.446 1,-1 V 6 C 11,5.446 10.554,5 10,5 Z m 1,1 h 2 c 0.554,0 1,0.446 1,1 v 2 c 0,0.554 -0.446,1 -1,1 H 7 C 6.446,10 6,9.554 6,9 V 7 C 6,6.446 6.446,6 7,6 Z M 7.5,7 C 7.223,7 7,7.223 7,7.5 v 1 C 7,8.777 7.223,9 7.5,9 h 1 C 8.777,9 9,8.777 9,8.5 v -1 C 9,7.223 8.777,7 8.5,7 Z m 5.499999,1 c -0.554,0 -1,0.446 -1,1 v 2 c 0,0.554 -0.445999,1 -0.999999,1 H 9 c -0.554,0 -1,0.446 -1,1 0,0.554 0.446,1 1,1 h 3.999999 c 0.554001,0 1,-0.446 1,-1 V 12 10.5 9 c 0,-0.554 -0.445999,-1 -1,-1 z M 3,10 c -0.554,0 -1,0.446 -1,1 v 2 c 0,0.554 0.446,1 1,1 H 5 C 5.554,14 6,13.554 6,13 6,12.446 5.554,12 5,12 H 4 V 11 C 4,10.446 3.554,10 3,10 Z" />
    <path
       id="rect4704"
       style="opacity:1;fill:#71556a;fill-opacity:1;stroke:#000000;stroke-width:0;stop-color:#000000"
       d="M 2 5.8886719 L 2 7 C 2 7.554 2.446 8 3 8 C 3.1853843 8 3.3495145 7.9368272 3.4980469 7.8496094 L 2 5.8886719 z M 5 9.8183594 L 5 10 C 5 10.513116 5.3881187 10.917298 5.8847656 10.976562 L 5 9.8183594 z M 3 10 C 2.4931433 10 2.0945509 10.379387 2.0273438 10.867188 L 4.4179688 14 L 5 14 C 5.554 14 6 13.554 6 13 C 6 12.446 5.554 12 5 12 L 4 12 L 4 11 C 4 10.446 3.554 10 3 10 z " />
    <path
       id="rect1047"
       style="font-variation-settings:normal;display:inline;vector-effect:none;fill:#865e6f;fill-opacity:1;stroke:#000000;stroke-width:0;stroke-linecap:butt;stroke-linejoin:miter;stroke-miterlimit:4;stroke-dasharray:none;stroke-dashoffset:0;stroke-opacity:1;stop-color:#000000"
       d="M 2.0273438 10.867188 C 2.0210927 10.912558 2 10.952857 2 11 L 2 13 C 2 13.554 2.446 14 3 14 L 4.4179688 14 L 2.0273438 10.867188 z " />
  </g>
</svg>
