<?xml version="1.0" encoding="UTF-8" standalone="no"?>
<svg
   xmlns:dc="http://purl.org/dc/elements/1.1/"
   xmlns:cc="http://creativecommons.org/ns#"
   xmlns:rdf="http://www.w3.org/1999/02/22-rdf-syntax-ns#"
   xmlns:svg="http://www.w3.org/2000/svg"
   xmlns="http://www.w3.org/2000/svg"
   xmlns:sodipodi="http://sodipodi.sourceforge.net/DTD/sodipodi-0.dtd"
   xmlns:inkscape="http://www.inkscape.org/namespaces/inkscape"
   width="16.0px"
   height="16.0px"
   viewBox="0 0 16.0 16.0"
   version="1.1"
   id="SVGRoot"
   sodipodi:docname="Spotify.svg"
   inkscape:version="1.0.1 (3bc2e813f5, 2020-09-07)">
  <defs
     id="defs841" />
  <sodipodi:namedview
     id="base"
     pagecolor="#ffffff"
     bordercolor="#666666"
     borderopacity="1.0"
     inkscape:pageopacity="0.0"
     inkscape:pageshadow="2"
     inkscape:zoom="44.5625"
     inkscape:cx="8"
     inkscape:cy="8.1987348"
     inkscape:document-units="px"
     inkscape:current-layer="layer1"
     inkscape:document-rotation="0"
     showgrid="true"
     inkscape:window-width="902"
     inkscape:window-height="1030"
     inkscape:window-x="1002"
     inkscape:window-y="12"
     inkscape:window-maximized="1">
    <inkscape:grid
       type="xygrid"
       id="grid850" />
  </sodipodi:namedview>
  <metadata
     id="metadata844">
    <rdf:RDF>
      <cc:Work
         rdf:about="">
        <dc:format>image/svg+xml</dc:format>
        <dc:type
           rdf:resource="http://purl.org/dc/dcmitype/StillImage" />
        <dc:title></dc:title>
      </cc:Work>
    </rdf:RDF>
  </metadata>
  <g
     inkscape:label="Layer 1"
     inkscape:groupmode="layer"
     id="layer1"
     style="display:inline">
    <rect
       style="display:inline;fill:#c8b4a2;fill-opacity:1;stroke:#000000;stroke-width:0;stroke-miterlimit:4;stroke-dasharray:none;stroke-opacity:1"
       id="rect875-7-5-6"
       width="16"
       height="16"
       x="0"
       y="-4.7683716e-07"
       rx="2"
       ry="2" />
    <path
       id="rect3733-7"
       style="display:inline;opacity:1;fill:#534354;fill-opacity:1;stroke:#000000;stroke-width:0;stop-color:#000000"
       d="M 4,2 C 2.892,2 2,2.892 2,4 v 8 c 0,1.108 0.892,2 2,2 h 7.999999 c 1.108,0 2,-0.892 2,-2 V 4 c 0,-1.108 -0.892,-2 -2,-2 z m 3.9472656,2 a 3,3 0 0 1 0.00195,0 3,3 0 0 1 0.050781,0 3,3 0 0 1 3.0000004,3 v 1 h 0.625 c 0.20775,0 0.374999,0.16725 0.374999,0.375 v 2.25 c 0,0.20775 -0.167249,0.375 -0.374999,0.375 h -1.25 C 10.167247,11 9.9999966,10.83275 9.9999966,10.625 V 9.234375 9 8.375 7 a 2,2 0 0 0 -2,-2 2,2 0 0 0 -0.048828,0 2,2 0 0 0 -1.9511719,2 2,2 0 0 0 0,0.048828 v 1.3261719 0.625 V 9.236328 10.625 c 0,0.20775 -0.16725,0.375 -0.375,0.375 h -1.25 c -0.20775,0 -0.375,-0.16725 -0.375,-0.375 V 8.3749999 c 0,-0.20775 0.16725,-0.375 0.375,-0.375 h 0.625 v -1 a 3,3 0 0 1 2.9472656,-3 z" />
    <path
       id="rect3733"
       style="opacity:1;fill:#71556a;fill-opacity:1;stroke:#000000;stroke-width:0;stop-color:#000000"
       d="M 2 5.8886719 L 2 10.832031 L 4.4179688 14 L 8.1933594 14 L 5.84375 10.921875 C 5.7815678 10.967674 5.7084923 11 5.625 11 L 4.375 11 C 4.16725 11 4 10.83275 4 10.625 L 4 8.5078125 L 2 5.8886719 z " />
    <path
       id="rect1047"
       style="font-variation-settings:normal;display:inline;vector-effect:none;fill:#865e6f;fill-opacity:1;stroke:#000000;stroke-width:0;stroke-linecap:butt;stroke-linejoin:miter;stroke-miterlimit:4;stroke-dasharray:none;stroke-dashoffset:0;stroke-opacity:1;stop-color:#000000"
       d="M 2 10.832031 L 2 12 C 2 13.108 2.892 14 4 14 L 4.4179688 14 L 2 10.832031 z " />
  </g>
</svg>
